{
  "client": [
    {
      "services": {
        "appinvite_service": {
          "status": 1
        }, 
        "analytics_service": {
          "status": 0
        }
      }, 
      "oauth_client": [
        {
          "client_id": "307884793740-l9lrdd3rorvseg5ili1itqnkir96dusm.apps.googleusercontent.com"
        }
      ], 
      "api_key": [
        {
          "current_key": "AIzaSyBtr5wZi-RVmUEiOJUqRSoDGGbnPoLFfbA"
        }
      ], 
      "client_info": {
        "mobilesdk_app_id": "1:307884793740:ios:939a119162b7746d5a00a9", 
        "android_client_info": {
          "package_name": "com.casual.perfectlanding"
        }
      }
    }
  ], 
  "configuration_version": "1", 
  "project_info": {
    "storage_bucket": "perfectlanding-46878.appspot.com", 
    "project_id": "perfectlanding-46878", 
    "firebase_url": "https://perfectlanding-46878.firebaseio.com", 
    "project_number": "307884793740"
  }
}